farsfunctions
…
fars_read_years

This function returns the month and year corresponding to each FARS observation. It takes a year in the form of an integer or string as an argument and then uses that value to read in a CSV as a tbl_df for data of that given year and returns the month and year corresponding to each observation.

fars_read_years('2013')

## [[1]]
## # A tibble: 30,202 × 2
##    MONTH  year
##    <int> <chr>
## 1      1  2013
## 2      1  2013
## 3      1  2013
## 4      1  2013
## 5      1  2013
## 6      1  2013
## 7      1  2013
## 8      1  2013
## 9      1  2013
## 10     1  2013
## # ... with 30,192 more rows
…
